Biostatistical Computing, PHC 6068
…
class(data0)

## [1] "data.frame"

read_csv

smartly print out the first few rows

data1

## # A tibble: 180 x 3
##    Reaction  Days Subject
##       <dbl> <int>   <int>
##  1     250.     0     308
##  2     259.     1     308
##  3     251.     2     308
##  4     321.     3     308
##  5     357.     4     308
##  6     415.     5     308
##  7     382.     6     308
##  8     290.     7     308
##  9     431.     8     308
## 10     466.     9     308
## # ... with 170 more rows
…
inner_join()

left_join()

right_join()

full_join()

anti_join()

select

select(data1, Days, Subject)

## # A tibble: 180 x 2
##     Days Subject
##    <int>   <int>
##  1     0     308
##  2     1     308
##  3     2     308
##  4     3     308
##  5     4     308
##  6     5     308
##  7     6     308
##  8     7     308
##  9     8     308
## 10     9     308
## # ... with 170 more rows

Use pipe

data1 %>% select(Days, Subject)

## # A tibble: 180 x 2
##     Days Subject
##    <int>   <int>
##  1     0     308
##  2     1     308
##  3     2     308
##  4     3     308
##  5     4     308
##  6     5     308
##  7     6     308
##  8     7     308
##  9     8     308
## 10     9     308
## # ... with 170 more rows

pipe

%>%

data1 %>% select(Days, Subject)

the result before %>% will be piped into the first argument of the function behind %>%

Do not select

data1 %>% select(-Reaction)

## # A tibble: 180 x 2
##     Days Subject
##    <int>   <int>
##  1     0     308
##  2     1     308
##  3     2     308
##  4     3     308
##  5     4     308
##  6     5     308
##  7     6     308
##  8     7     308
##  9     8     308
## 10     9     308
## # ... with 170 more rows
…
