Biostatistical Computing, PHC 6068
…
class(data0)

## [1] "data.frame"

read_csv

smartly print out the first few rows

data1

## # A tibble: 180 x 3
##    Reaction  Days Subject
##       <dbl> <dbl>   <dbl>
##  1     250.     0     308
##  2     259.     1     308
##  3     251.     2     308
##  4     321.     3     308
##  5     357.     4     308
##  6     415.     5     308
##  7     382.     6     308
##  8     290.     7     308
##  9     431.     8     308
## 10     466.     9     308
## #  with 170 more rows
…
Read SAS, SPSS, and Stata files.

haven package

haven will be included as part of tidyverse

library(haven)
salesfile <- "https:///Caleb-Huo.github.io/teaching/data/sleep/sales.sas7bdat"
data0 <- read_sas(salesfile)
data0

## # A tibble: 36 x 3
##     YEAR     P     S
##    <dbl> <dbl> <dbl>
##  1  1950  12.9  182.
##  2  1951  11.9  245 
##  3  1952  10.7  250.
##  4  1953  11.3  266.
##  5  1954  11.2  248.
##  6  1955  15.1  278.
##  7  1956  16.2  307.
##  8  1957  15.4  320 
##  9  1958  12.7  305.
## 10  1959  16.3  338 
## #  with 26 more rows
…
inner_join()

left_join()

right_join()

full_join()

anti_join()

select

select(data1, Days, Subject)

## # A tibble: 180 x 2
##     Days Subject
##    <dbl>   <dbl>
##  1     0     308
##  2     1     308
##  3     2     308
##  4     3     308
##  5     4     308
##  6     5     308
##  7     6     308
##  8     7     308
##  9     8     308
## 10     9     308
## #  with 170 more rows

Use pipe

data1 %>% select(Days, Subject)

## # A tibble: 180 x 2
##     Days Subject
##    <dbl>   <dbl>
##  1     0     308
##  2     1     308
##  3     2     308
##  4     3     308
##  5     4     308
##  6     5     308
##  7     6     308
##  8     7     308
##  9     8     308
## 10     9     308
## #  with 170 more rows
…
## [1] 2.718282

1 %>% exp()

## [1] 2.718282

1 %>% exp() %>% log ## () can be omitted if the data is the only argument

## [1] 1

Do not select

data1 %>% select(-Reaction)

## # A tibble: 180 x 2
##     Days Subject
##    <dbl>   <dbl>
##  1     0     308
##  2     1     308
##  3     2     308
##  4     3     308
##  5     4     308
##  6     5     308
##  7     6     308
##  8     7     308
##  9     8     308
## 10     9     308
## #  with 170 more rows
…
rename

data1 %>% 
  rename(ID = Subject)

## # A tibble: 180 x 3
##    Reaction  Days    ID
##       <dbl> <dbl> <dbl>
##  1     250.     0   308
##  2     259.     1   308
##  3     251.     2   308
##  4     321.     3   308
##  5     357.     4   308
##  6     415.     5   308
##  7     382.     6   308
##  8     290.     7   308
##  9     431.     8   308
## 10     466.     9   308
## #  with 170 more rows
…
Select by variables that are contained in a character vector

all_of() is for strict selection.

avar <- c("Reaction", "Days")
data1 %>% select(all_of(avar))

## # A tibble: 180 x 2
##    Reaction  Days
##       <dbl> <dbl>
##  1     250.     0
##  2     259.     1
##  3     251.     2
##  4     321.     3
##  5     357.     4
##  6     415.     5
##  7     382.     6
##  8     290.     7
##  9     431.     8
## 10     466.     9
## #  with 170 more rows

any_of() doesnt check for missing variables.

bvar <- c("Reaction", "Days", "Months")
data1 %>% select(any_of(bvar))

## # A tibble: 180 x 2
##    Reaction  Days
##       <dbl> <dbl>
##  1     250.     0
##  2     259.     1
##  3     251.     2
##  4     321.     3
##  5     357.     4
##  6     415.     5
##  7     382.     6
##  8     290.     7
##  9     431.     8
## 10     466.     9
## #  with 170 more rows
…
